{
  "Projecte": {
    "zapatillas": {
      "zapatilla": [{
          "-id_marca": "1",
          "modelos":{
            "modelo":{
              "#text": "Nike Air Force 1",
              "fecha_lanzamiento":{ "año": "1982"  }
            }
          }
        },
        {
          "-id_marca": "1",
          "modelos":{
            "modelo":{
              "#text": "Nike Air Max 90",
              "fecha_lanzamiento":{ "año": "1990" }
            }
          }
        },
        {
          "-id_marca": "1",
          "modelos":{
            "modelo":{
              "#text": "Nike Air Max 95",
              "fecha_lanzamiento":{ "año": "1995" }
            }
          }
        },
        {
          "-id_marca": "1",
          "modelos":{
            "modelo":{
              "#text": "Nike Air Max 97",
              "fecha_lanzamiento":{ "año": "1997" }
            }
          }
        },
        {
          "-id_marca": "1",
          "modelos":{
            "modelo":{
              "#text": "Nike Air Max 98",
              "fecha_lanzamiento":{ "año": "1998" }
            }
          }
        },
        {
          "-id_marca": "1",
          "modelos":{
            "modelo":{
              "#text": "Nike Air Max 1",
              "fecha_lanzamiento":{ "año": "1987" }
            }
          }
        },
        {
          "-id_marca": "2",
          "modelos":{
            "modelo":{
              "#text": "Adidas Superstar",
              "fecha_lanzamiento":{ "año": "1969" }
            }
          }
        },
        {
          "-id_marca": "2",
          "modelos":{
            "modelo":{
              "#text": "Adidas NMD_R1",
              "fecha_lanzamiento":{ "año": "2016" }
            }
          }
        },
        {
          "-id_marca": "2",
          "modelos":{
            "modelo":{
              "#text": "Adidas Gazelle",
              "fecha_lanzamiento":{ "año": "1960" }
            }
          }
        },
        {
          "-id_marca": "2",
          "modelos":{
            "modelo":{
              "#text": "Adidas Continental",
              "fecha_lanzamiento":{ "año": "2018" }
            }
          }
        },
        {
          "-id_marca": "2",
          "modelos":{
            "modelo":{
              "#text": "Adidas Deerupt Runner",
              "fecha_lanzamiento":{ "año": "2018" }
            }
          }
        },
        {
          "-id_marca": "2",
          "modelos":{
            "modelo":{
              "#text": "Adidas Stan Smith",
              "fecha_lanzamiento":{ "año": "1972" }
            }
          }
        },
        {
          "-id_marca": "3",
        "modelos":{
          "modelo":{
            "#text": " Air Jordan Retro I",
            "fecha_lanzamiento":{ "año": "1985" }
            }
          }
        },
        {
          "-id_marca": "3",
          "modelos":{
            "modelo":{
              "#text": "Air Jordan Retro II",
              "fecha_lanzamiento":{ "año": "1986" }
            }
          }
        },
        {
          "-id_marca": "3",
          "modelos":{
            "modelo":{
              "#text": "Air Jordan Retro VI",
              "fecha_lanzamiento":{ "año": "1991" }
            }
          }
        }
        {
          "-id_marca": "3",
          "modelos":{
            "modelo":{
              "#text": "Air Jordan Retro IX",
              "fecha_lanzamiento":{ "año": "1994" }
            }
          }
        },
        {
          "-id_marca": "3",
          "modelos":{
            "modelo":{
              "#text": "Air Jordan Retro XII",
              "fecha_lanzamiento":{ "año": "1997" }
            }
          }
        },
        {
          "-id_marca": "3",
          "modelos": {
            "modelo": {
              "#text": " Air Jordan Retro XV",
              "fecha_lanzamiento": { "año": "2000" }
            }
          }
        }
      ]},
    "colaboraciones":{
      "colaboracion":[{
        "-id_marca": "1",
        "modelo_colabo":{
          "#text": "Nike Air Max 1/97 Sean Wotherspoon",
          "fecha_lanzamiento":{ "año": "2017" }
        }
      },
        {
          "-id_marca": "1",
          "modelo_colabo":{
            "#text": "Nike Air Force 1 x Off White OG",
            "fecha_lanzamiento":{ "año": "2017" }
          }
        },
        {
          "-id_marca": "1",
          "modelo_colabo":{
            "#text": "Nike Air Max 97 x Off White OG",
            "fecha_lanzamiento":{ "año": "2017" }
          }
        },
        {
          "-id_marca": "1",
          "modelo_colabo":{
            "#text": "Nike Zoom Fly SP Gyakusou",
            "fecha_lanzamiento":{ "año": "2018" }
          }
        },
        {
          "-id_marca": "2",
          "modelo_colabo":{
            "#text": "Yeezy 700 OG",
            "fecha_lanzamiento":{ "año": "2017" }
          }
        },
        {
          "-id_marca": "2",
          "modelo_colabo":{
            "#text": "Yeezy 500 'Mud rat'",
            "fecha_lanzamiento":{ "año": "2018" }
          }
        },
        {
          "-id_marca": "2",
          "modelo_colabo":{
            "#text": "Daniel Arsham Future Runner 4D",
            "fecha_lanzamiento":{ "año": "2018" }
          }
        },
        {
          "-id_marca": "2",
          "modelo_colabo":{
            "#text": "Yeezy 350 v2 'Blue Tint'",
            "fecha_lanzamiento":{ "año": "2017" }
          }
        },
        {
          "-id_marca": "3",
          "modelo_colabo":{
            "#text": "Air Jordan Retro IV x Kaws",
            "fecha_lanzamiento":{ "año": "2017" }
          }
        },
        {
          "-id_marca": "3",
          "modelo_colabo":{
            "#text": "Air Jordan Retro IV x Levi's",
            "fecha_lanzamiento":{ "año": "2018" }
          }
        },
        {
          "-id_marca": "3",
          "modelo_colabo":{
            "#text": "Air Jordan Retro I x Off White",
            "fecha_lanzamiento":{ "año": "2017" }
          }
        },
        {
          "-id_marca": "3",
          "modelo_colabo":{
            "#text": "Air Jordan Retro IV x Paris Saint-Germain",
            "fecha_lanzamiento": { "año": "2018" }
          }
        }
      ]
    },
    "marcas":{
      "marca":[{
          "-id_marca": "1",
          "#text": "Nike"
        },
        {
          "-id_marca": "2",
          "#text": "Adidas"
        },
        {
          "-id_marca": "3",
          "#text": "Jordan"
        }
      ]
    }
  }
}